Id,Name,Gender,Email,Contact,Enabled,BatchId
STU010,Neeladri,M,neel1@neel.com,789945,Yes,1
STU011,abcdef,M,abcdef1@gmail.com,789945,Yes,1
STU012,abcdef,M,niladri1@gmail.com,789945,Yes,1
STU013,Neeladri,M,niladri28@gmail.com,789945,Yes,1
